{
    "window.zoomLevel": 0,
    "editor.fontFamily": "'FuraCode Nerd Font Mono'",
    "editor.cursorBlinking": "blink",
    "editor.rulers": [
        80,
        120
    ],
    "editor.minimap.enabled": false,
    "editor.accessibilitySupport": "off",
    "editor.emptySelectionClipboard": false,
    "terminal.integrated.fontSize": 15.0,
    "terminal.integrated.fontFamily": "'Fira Code'",
    "terminal.integrated.cursorBlinking": true,
    "workbench.startupEditor": "none",
    "workbench.editor.enablePreviewFromQuickOpen": false,
    "workbench.activityBar.visible": false,
    "workbench.panel.defaultLocation": "right",
    "workbench.statusBar.feedback.visible": false,
    "workbench.editor.enablePreview": false,
    "workbench.colorTheme": "Solarized Light",
    "workbench.iconTheme": "vs-minimal",
    "explorer.confirmDragAndDrop": false,
    "explorer.confirmDelete": false,
    "keyboard.dispatch": "keyCode",
    "window.menuBarVisibility": "toggle",
    "window.restoreWindows": "none",
    "gitlens.hovers.currentLine.over": "line",
    "gitlens.currentLine.enabled": false,
    "gitlens.codeLens.recentChange.enabled": false,
    "gitlens.codeLens.authors.enabled": false,
    "rust.wait_to_build": 500,
    "rust-client.channel": "stable",
    "rust.all_features": true,
    "python.jediEnabled": false,
    "java.configuration.checkProjectSettingsExclusions": false,
    "latex-workshop.message.update.show": false,
    "breadcrumbs.enabled": false,
    "code-runner.runInTerminal": true,
    "window.titleBarStyle": "native",
    "latex-workshop.latex.autoBuild.run": "onFileChange",
    "typescript.surveys.enabled": false,
    "vim.easymotionMarkerFontFamily": "Fira Code",
    "vim.cursorStylePerMode.insert": "line",
    "vim.debug.silent": true,
    "vim.useCtrlKeys": false,
    "vim.handleKeys": {
        "<C-u>": true,
        "<C-d>": true
    },
    "vim.leader": "\\",
    "vim.insertModeKeyBindingsNonRecursive": [
        {
            "before": [
                "j",
                "j"
            ],
            "after": [
                "<Esc>"
            ]
        }
    ],
    "vim.normalModeKeyBindingsNonRecursive": [
        {
            "before": [
                ":"
            ],
            "commands": [
                "workbench.action.showCommands",
            ]
        },
        {
            "before": [
                "<leader>",
                "v"
            ],
            "commands": [
                "workbench.action.splitEditor",
            ]
        },
        {
            "before": [
                "<leader>",
                "h"
            ],
            "commands": [
                "workbench.action.splitEditorOrthogonal",
            ]
        },
        {
            "before": [
                "<leader>",
                "c"
            ],
            "commands": [
                "workbench.action.closeActiveEditor",
            ]
        },
        {
            "before": [
                "<leader>",
                "m",
                "m"
            ],
            "commands": [
                "bookmarks.toggle"
            ]
        },
        {
            "before": [
                "<leader>",
                "m",
                "n"
            ],
            "commands": [
                "bookmarks.jumpToNext"
            ]
        },
        {
            "before": [
                "<leader>",
                "m",
                "l"
            ],
            "commands": [
                "bookmarks.list"
            ]
        },
        {
            "before": [
                "<leader>",
                "l",
                "b"
            ],
            "commands": [
                "latex-workshop.build"
            ]
        }
    ],
    "latex-workshop.view.pdf.viewer": "tab",
    "editor.suggestSelection": "first",
    "vsintellicode.modify.editor.suggestSelection": "automaticallyOverrodeDefaultValue"
}
